tb/top/top_tb.vcd
$date
	Tue Apr  5 16:10:17 2016
$end
$version
	Icarus Verilog
$end
$timescale
	1s
$end
$scope module top_tb $end
$var reg 1 ! clock $end
$var reg 17 " input_mem_depth [16:0] $end
$var reg 1 # new_image_pulse $end
$var reg 17 $ output_mem_depth [16:0] $end
$var reg 1 % reset $end
$var reg 17 & scratch_mem_depth [16:0] $end
$var integer 32 ' wdata_file [31:0] $end
$scope module top_u0 $end
$var wire 1 ( clock $end
$var wire 17 ) input_mem_depth [16:0] $end
$var wire 16 * input_mem_raddr0 [15:0] $end
$var wire 16 + input_mem_raddr1 [15:0] $end
$var wire 128 , input_mem_rdata0 [127:0] $end
$var wire 128 - input_mem_rdata1 [127:0] $end
$var wire 1 . new_image_pulse $end
$var wire 1 / output_mem_WE $end
$var wire 17 0 output_mem_depth [16:0] $end
$var wire 16 1 output_mem_waddr [15:0] $end
$var wire 128 2 output_mem_wdata [127:0] $end
$var wire 1 3 reset $end
$var wire 1 4 scratch_mem_WE $end
$var wire 17 5 scratch_mem_depth [16:0] $end
$var wire 16 6 scratch_mem_raddr0 [15:0] $end
$var wire 16 7 scratch_mem_raddr1 [15:0] $end
$var wire 128 8 scratch_mem_rdata0 [127:0] $end
$var wire 128 9 scratch_mem_rdata1 [127:0] $end
$var wire 16 : scratch_mem_waddr [15:0] $end
$var wire 128 ; scratch_mem_wdata [127:0] $end
$scope module top_without_mem_u0 $end
$var wire 1 < cdf_done $end
$var wire 1 = cdf_en $end
$var wire 1 > cdf_scratch_mem_WE $end
$var wire 16 ? cdf_scratch_mem_raddr0 [15:0] $end
$var wire 16 @ cdf_scratch_mem_raddr1 [15:0] $end
$var wire 128 A cdf_scratch_mem_rdata0 [127:0] $end
$var wire 128 B cdf_scratch_mem_rdata1 [127:0] $end
$var wire 16 C cdf_scratch_mem_waddr [15:0] $end
$var wire 128 D cdf_scratch_mem_wdata [127:0] $end
$var wire 1 E cdf_start_pulse $end
$var wire 1 ( clock $end
$var wire 1 F divider_done $end
$var wire 1 G divider_en $end
$var wire 16 H divider_input_mem_raddr0 [15:0] $end
$var wire 16 I divider_input_mem_raddr1 [15:0] $end
$var wire 128 J divider_input_mem_rdata0 [127:0] $end
$var wire 128 K divider_input_mem_rdata1 [127:0] $end
$var wire 1 L divider_output_mem_WE $end
$var wire 16 M divider_output_mem_waddr [15:0] $end
$var wire 128 N divider_output_mem_wdata [127:0] $end
$var wire 1 O divider_scratch_mem_WE $end
$var wire 16 P divider_scratch_mem_raddr0 [15:0] $end
$var wire 16 Q divider_scratch_mem_raddr1 [15:0] $end
$var wire 128 R divider_scratch_mem_rdata0 [127:0] $end
$var wire 128 S divider_scratch_mem_rdata1 [127:0] $end
$var wire 16 T divider_scratch_mem_waddr [15:0] $end
$var wire 128 U divider_scratch_mem_wdata [127:0] $end
$var wire 1 V divider_start_pulse $end
$var wire 1 W histogram_computation_done $end
$var wire 1 X histogram_en $end
$var wire 16 Y histogram_input_mem_raddr0 [15:0] $end
$var wire 16 Z histogram_input_mem_raddr1 [15:0] $end
$var wire 128 [ histogram_input_mem_rdata0 [127:0] $end
$var wire 128 \ histogram_input_mem_rdata1 [127:0] $end
$var wire 1 ] histogram_scratch_mem_WE $end
$var wire 16 ^ histogram_scratch_mem_raddr0 [15:0] $end
$var wire 16 _ histogram_scratch_mem_raddr1 [15:0] $end
$var wire 128 ` histogram_scratch_mem_rdata0 [127:0] $end
$var wire 128 a histogram_scratch_mem_rdata1 [127:0] $end
$var wire 16 b histogram_scratch_mem_waddr [15:0] $end
$var wire 128 c histogram_scratch_mem_wdata [127:0] $end
$var wire 1 d histogram_start_pulse $end
$var wire 1 e image_done_pulse $end
$var wire 17 f input_mem_depth [16:0] $end
$var wire 1 g input_mem_done $end
$var wire 16 h input_mem_raddr0 [15:0] $end
$var wire 16 i input_mem_raddr1 [15:0] $end
$var wire 128 j input_mem_rdata0 [127:0] $end
$var wire 128 k input_mem_rdata1 [127:0] $end
$var wire 1 l input_mem_read_finished $end
$var wire 1 . new_image_pulse $end
$var wire 1 / output_mem_WE $end
$var wire 17 m output_mem_depth [16:0] $end
$var wire 1 n output_mem_overflow_fault $end
$var wire 16 o output_mem_waddr [15:0] $end
$var wire 128 p output_mem_wdata [127:0] $end
$var wire 1 3 reset $end
$var wire 1 4 scratch_mem_WE $end
$var wire 17 q scratch_mem_depth [16:0] $end
$var wire 1 r scratch_mem_overflow_fault $end
$var wire 16 s scratch_mem_raddr0 [15:0] $end
$var wire 16 t scratch_mem_raddr1 [15:0] $end
$var wire 128 u scratch_mem_rdata0 [127:0] $end
$var wire 128 v scratch_mem_rdata1 [127:0] $end
$var wire 16 w scratch_mem_waddr [15:0] $end
$var wire 128 x scratch_mem_wdata [127:0] $end
$scope module mem_controller_u0 $end
$var wire 1 = cdf_en $end
$var wire 1 > cdf_scratch_mem_WE $end
$var wire 16 y cdf_scratch_mem_raddr0 [15:0] $end
$var wire 16 z cdf_scratch_mem_raddr1 [15:0] $end
$var wire 16 { cdf_scratch_mem_waddr [15:0] $end
$var wire 128 | cdf_scratch_mem_wdata [127:0] $end
$var wire 1 ( clock $end
$var wire 1 G divider_en $end
$var wire 16 } divider_input_mem_raddr0 [15:0] $end
$var wire 16 ~ divider_input_mem_raddr1 [15:0] $end
$var wire 1 L divider_output_mem_WE $end
$var wire 16 !" divider_output_mem_waddr [15:0] $end
$var wire 128 "" divider_output_mem_wdata [127:0] $end
$var wire 1 O divider_scratch_mem_WE $end
$var wire 16 #" divider_scratch_mem_raddr0 [15:0] $end
$var wire 16 $" divider_scratch_mem_raddr1 [15:0] $end
$var wire 16 %" divider_scratch_mem_waddr [15:0] $end
$var wire 128 &" divider_scratch_mem_wdata [127:0] $end
$var wire 128 '" final_input_mem_rdata0 [127:0] $end
$var wire 128 (" final_input_mem_rdata1 [127:0] $end
$var wire 128 )" final_scratch_mem_rdata0 [127:0] $end
$var wire 128 *" final_scratch_mem_rdata1 [127:0] $end
$var wire 1 X histogram_en $end
$var wire 16 +" histogram_input_mem_raddr0 [15:0] $end
$var wire 16 ," histogram_input_mem_raddr1 [15:0] $end
$var wire 1 ] histogram_scratch_mem_WE $end
$var wire 16 -" histogram_scratch_mem_raddr0 [15:0] $end
$var wire 16 ." histogram_scratch_mem_raddr1 [15:0] $end
$var wire 16 /" histogram_scratch_mem_waddr [15:0] $end
$var wire 128 0" histogram_scratch_mem_wdata [127:0] $end
$var wire 1 e image_done_pulse $end
$var wire 17 1" input_mem_depth [16:0] $end
$var wire 17 2" output_mem_depth [16:0] $end
$var wire 1 3 reset $end
$var wire 17 3" scratch_mem_depth [16:0] $end
$var reg 128 4" cdf_scratch_mem_rdata0 [127:0] $end
$var reg 128 5" cdf_scratch_mem_rdata1 [127:0] $end
$var reg 128 6" divider_input_mem_rdata0 [127:0] $end
$var reg 128 7" divider_input_mem_rdata1 [127:0] $end
$var reg 128 8" divider_scratch_mem_rdata0 [127:0] $end
$var reg 128 9" divider_scratch_mem_rdata1 [127:0] $end
$var reg 16 :" final_input_mem_raddr0 [15:0] $end
$var reg 16 ;" final_input_mem_raddr1 [15:0] $end
$var reg 1 <" final_output_mem_WE $end
$var reg 16 =" final_output_mem_waddr [15:0] $end
$var reg 128 >" final_output_mem_wdata [127:0] $end
$var reg 1 ?" final_scratch_mem_WE $end
$var reg 16 @" final_scratch_mem_raddr0 [15:0] $end
$var reg 16 A" final_scratch_mem_raddr1 [15:0] $end
$var reg 16 B" final_scratch_mem_waddr [15:0] $end
$var reg 128 C" final_scratch_mem_wdata [127:0] $end
$var reg 128 D" histogram_input_mem_rdata0 [127:0] $end
$var reg 128 E" histogram_input_mem_rdata1 [127:0] $end
$var reg 128 F" histogram_scratch_mem_rdata0 [127:0] $end
$var reg 128 G" histogram_scratch_mem_rdata1 [127:0] $end
$var reg 1 H" input_mem_done $end
$var reg 1 I" output_mem_overflow_fault $end
$var reg 1 J" scratch_mem_overflow_fault $end
$upscope $end
$scope module top_level_control_u0 $end
$var wire 1 < cdf_done $end
$var wire 1 ( clock $end
$var wire 1 F divider_done $end
$var wire 1 W histogram_computation_done $end
$var wire 1 g input_mem_done $end
$var wire 1 . new_image_pulse $end
$var wire 1 n output_mem_overflow_fault $end
$var wire 1 3 reset $end
$var wire 1 r scratch_mem_overflow_fault $end
$var reg 1 K" cdf_en $end
$var reg 1 L" cdf_start_pulse $end
$var reg 4 M" current_state [3:0] $end
$var reg 1 N" divider_en $end
$var reg 1 O" divider_start_pulse $end
$var reg 1 P" histogram_en $end
$var reg 1 Q" histogram_start_pulse $end
$var reg 1 R" image_done_pulse $end
$var reg 1 S" input_mem_read_finished $end
$var reg 4 T" next_state [3:0] $end
$upscope $end
$scope module histogram_equalizer_core_u0 $end
$var wire 1 U" all_pixel_written $end
$var wire 1 > cdf_scratch_mem_WE $end
$var wire 16 V" cdf_scratch_mem_raddr0 [15:0] $end
$var wire 16 W" cdf_scratch_mem_raddr1 [15:0] $end
$var wire 128 X" cdf_scratch_mem_rdata0 [127:0] $end
$var wire 128 Y" cdf_scratch_mem_rdata1 [127:0] $end
$var wire 16 Z" cdf_scratch_mem_waddr [15:0] $end
$var wire 128 [" cdf_scratch_mem_wdata [127:0] $end
$var wire 1 ( clock $end
$var wire 16 \" divider_input_mem_raddr0 [15:0] $end
$var wire 16 ]" divider_input_mem_raddr1 [15:0] $end
$var wire 128 ^" divider_input_mem_rdata0 [127:0] $end
$var wire 128 _" divider_input_mem_rdata1 [127:0] $end
$var wire 1 L divider_output_mem_WE $end
$var wire 16 `" divider_output_mem_waddr [15:0] $end
$var wire 128 a" divider_output_mem_wdata [127:0] $end
$var wire 1 O divider_scratch_mem_WE $end
$var wire 16 b" divider_scratch_mem_raddr0 [15:0] $end
$var wire 16 c" divider_scratch_mem_raddr1 [15:0] $end
$var wire 128 d" divider_scratch_mem_rdata0 [127:0] $end
$var wire 128 e" divider_scratch_mem_rdata1 [127:0] $end
$var wire 16 f" divider_scratch_mem_waddr [15:0] $end
$var wire 128 g" divider_scratch_mem_wdata [127:0] $end
$var wire 1 W histogram_computation_done $end
$var wire 16 h" histogram_input_mem_raddr0 [15:0] $end
$var wire 16 i" histogram_input_mem_raddr1 [15:0] $end
$var wire 128 j" histogram_input_mem_rdata0 [127:0] $end
$var wire 128 k" histogram_input_mem_rdata1 [127:0] $end
$var wire 1 ] histogram_scratch_mem_WE $end
$var wire 16 l" histogram_scratch_mem_raddr0 [15:0] $end
$var wire 16 m" histogram_scratch_mem_raddr1 [15:0] $end
$var wire 128 n" histogram_scratch_mem_rdata0 [127:0] $end
$var wire 128 o" histogram_scratch_mem_rdata1 [127:0] $end
$var wire 16 p" histogram_scratch_mem_waddr [15:0] $end
$var wire 128 q" histogram_scratch_mem_wdata [127:0] $end
$var wire 1 l input_mem_read_finished $end
$var wire 1 r" read_data_ready_input_mem $end
$var wire 1 s" read_data_ready_scratch_mem $end
$var wire 1 3 reset $end
$var wire 1 t" set_read_address_input_mem $end
$var wire 1 u" set_read_address_scratch_mem $end
$var wire 1 v" set_write_address_scratch_mem $end
$var wire 1 w" shift_scratch_memory_rw_address $end
$var wire 1 E start_cdf $end
$var wire 1 V start_divider $end
$var wire 1 d start_histogram $end
$scope module histogram_data_path_u0 $end
$var wire 1 U" all_pixel_written $end
$var wire 1 ( clock $end
$var wire 128 x" input_memory_rdata0 [127:0] $end
$var wire 128 y" input_memory_rdata1 [127:0] $end
$var wire 1 r" read_data_ready_input_mem $end
$var wire 1 s" read_data_ready_scratch_mem $end
$var wire 1 3 reset $end
$var wire 128 z" scratch_memory_rdata0 [127:0] $end
$var wire 1 {" scratch_memory_read_out_data_is_not_x $end
$var wire 1 t" set_read_address_input_mem $end
$var wire 1 u" set_read_address_scratch_mem $end
$var wire 1 v" set_write_address_scratch_mem $end
$var wire 1 w" shift_scratch_memory_rw_address $end
$var reg 6 |" counter [5:0] $end
$var reg 1 }" first_time $end
$var reg 64 ~" has_nz_data [63:0] $end
$var reg 16 !# input_memory_address_pointer0 [15:0] $end
$var reg 16 "# input_memory_address_pointer1 [15:0] $end
$var reg 128 ## local_scratch_memory_data [127:0] $end
$var reg 8 $# offset [7:0] $end
$var reg 256 %# offset_reg [255:0] $end
$var reg 16 &# scratch_memory_address_pointer0 [15:0] $end
$var reg 256 '# scratch_memory_rw_address [255:0] $end
$var reg 128 (# scratch_memory_wdata [127:0] $end
$var reg 128 )# wdata [127:0] $end
$var reg 16 *# write_address [15:0] $end
$var reg 1 +# write_enable $end
$upscope $end
$scope module histogram_control_u0 $end
$var wire 1 U" all_pixel_written $end
$var wire 1 ( clock $end
$var wire 1 l input_memory_read_finished $end
$var wire 1 3 reset $end
$var wire 1 d start_histogram $end
$var reg 4 ,# current_state [3:0] $end
$var reg 1 -# histogram_computation_done $end
$var reg 4 .# next_state [3:0] $end
$var reg 1 /# read_data_ready_input_mem $end
$var reg 1 0# read_data_ready_scratch_mem $end
$var reg 1 1# set_read_address_input_mem $end
$var reg 1 2# set_read_address_scratch_mem $end
$var reg 1 3# set_write_address_scratch_mem $end
$var reg 1 4# shift_scratch_memory_rw_address $end
$upscope $end
$upscope $end
$upscope $end
$scope module scratch_memory_u0 $end
$var wire 16 5# ReadAddress1 [15:0] $end
$var wire 16 6# ReadAddress2 [15:0] $end
$var wire 1 4 WE $end
$var wire 16 7# WriteAddress [15:0] $end
$var wire 128 8# WriteBus [127:0] $end
$var wire 1 ( clock $end
$var reg 128 9# ReadBus1 [127:0] $end
$var reg 128 :# ReadBus2 [127:0] $end
$var reg 65536 ;# WElines [65535:0] $end
$var integer 32 <# i [31:0] $end
$upscope $end
$scope module input_memory_u0 $end
$var wire 16 =# ReadAddress1 [15:0] $end
$var wire 16 ># ReadAddress2 [15:0] $end
$var wire 1 ?# WE $end
$var wire 16 @# WriteAddress [15:0] $end
$var wire 128 A# WriteBus [127:0] $end
$var wire 1 ( clock $end
$var reg 128 B# ReadBus1 [127:0] $end
$var reg 128 C# ReadBus2 [127:0] $end
$var reg 65536 D# WElines [65535:0] $end
$var integer 32 E# i [31:0] $end
$upscope $end
$scope module output_memory_u0 $end
$var wire 16 F# ReadAddress1 [15:0] $end
$var wire 16 G# ReadAddress2 [15:0] $end
$var wire 1 / WE $end
$var wire 16 H# WriteAddress [15:0] $end
$var wire 128 I# WriteBus [127:0] $end
$var wire 1 ( clock $end
$var reg 128 J# ReadBus1 [127:0] $end
$var reg 128 K# ReadBus2 [127:0] $end
$var reg 65536 L# WElines [65535:0] $end
$var integer 32 M# i [31:0] $end
$upscope $end
$upscope $end
$upscope $end
$enddefinitions $end
#0
$dumpvars
b10000000000000000 M#
bx L#
bx K#
bx J#
b0 I#
b0 H#
b0 G#
b0 F#
b10000000000000000 E#
bx D#
bx C#
bx B#
b0 A#
b0 @#
0?#
b0 >#
b0 =#
b10000000000000000 <#
bx ;#
bx :#
bx 9#
b0 8#
b0 7#
b0 6#
b0 5#
04#
03#
02#
01#
00#
0/#
b0 .#
x-#
b0 ,#
0+#
b0 *#
b1000000000000000000000000000000000000000000000000000000000000000000000000000000000000000000000000 )#
b0 (#
b0 '#
b0 &#
b0 %#
b0 $#
b0 ##
b1 "#
b0 !#
b0 ~"
1}"
b0 |"
0{"
b0 z"
b0 y"
b0 x"
0w"
0v"
0u"
0t"
0s"
0r"
b0 q"
b0 p"
b0 o"
b0 n"
bz m"
b0 l"
b0 k"
b0 j"
b1 i"
b0 h"
bz g"
bz f"
b0 e"
b0 d"
bz c"
bz b"
bz a"
bz `"
bx _"
bx ^"
bz ]"
bz \"
bz ["
bz Z"
b0 Y"
b0 X"
bz W"
bz V"
0U"
b0 T"
xS"
0R"
0Q"
xP"
0O"
xN"
b0 M"
0L"
xK"
xJ"
xI"
0H"
b0 G"
b0 F"
b0 E"
b0 D"
b0 C"
b0 B"
b0 A"
b0 @"
0?"
b0 >"
b0 ="
0<"
b0 ;"
b0 :"
b0 9"
b0 8"
bx 7"
bx 6"
b0 5"
b0 4"
b10000000000000000 3"
b10000000000000000 2"
b10000000000000000 1"
b0 0"
b0 /"
bz ."
b0 -"
b1 ,"
b0 +"
bx *"
bx )"
bx ("
bx '"
bz &"
bz %"
bz $"
bz #"
bz ""
bz !"
bz ~
bz }
bz |
bz {
bz z
bz y
b0 x
b0 w
bx v
bx u
b0 t
b0 s
xr
b10000000000000000 q
b0 p
b0 o
xn
b10000000000000000 m
xl
bx k
bx j
b0 i
b0 h
0g
b10000000000000000 f
0e
0d
b0 c
b0 b
b0 a
b0 `
bz _
b0 ^
0]
b0 \
b0 [
b1 Z
b0 Y
xX
xW
0V
bz U
bz T
b0 S
b0 R
bz Q
bz P
zO
bz N
bz M
zL
bx K
bx J
bz I
bz H
xG
zF
0E
bz D
bz C
b0 B
b0 A
bz @
bz ?
z>
x=
z<
b0 ;
b0 :
bx 9
bx 8
b0 7
b0 6
b10000000000000000 5
04
13
b0 2
b0 1
b10000000000000000 0
0/
x.
bx -
bx ,
b0 +
b0 *
b10000000000000000 )
1(
b0 '
b10000000000000000 &
1%
b10000000000000000 $
x#
b10000000000000000 "
1!
$end
#2
b0 L#
b0 ;#
b1010011010101010101010101010110010101100101010101010101010101000101010101010100010101000101001101010011010101000101010001010101 C#
b1010011010101010101010101010110010101100101010101010101010101000101010101010100010101000101001101010011010101000101010001010101 -
b1010011010101010101010101010110010101100101010101010101010101000101010101010100010101000101001101010011010101000101010001010101 k
b1010011010101010101010101010110010101100101010101010101010101000101010101010100010101000101001101010011010101000101010001010101 ("
b1010011010101010101010101010110010101100101010101010101010101000101010101010100010101000101001101010011010101000101010001010101 B#
b1010011010101010101010101010110010101100101010101010101010101000101010101010100010101000101001101010011010101000101010001010101 ,
b1010011010101010101010101010110010101100101010101010101010101000101010101010100010101000101001101010011010101000101010001010101 j
b1010011010101010101010101010110010101100101010101010101010101000101010101010100010101000101001101010011010101000101010001010101 '"
b0 D#
#5
0!
0(
#10
b10000000000000000 M#
b10000000000000000 E#
b10000000000000000 <#
1!
1(
#15
0!
0(
#20
b10000000000000000 <#
b10000000000000000 E#
b10000000000000000 M#
1!
1(
#25
0!
0(
#30
bz A"
bz 7
bz t
bz 5#
bx G"
bx a
bx o"
bx F"
bx `
bx n"
bx z"
b1 ;"
b1 +
b1 i
b1 >#
b1010011010101010101010101010110010101100101010101010101010101000101010101010100010101000101001101010011010101000101010001010101 E"
b1010011010101010101010101010110010101100101010101010101010101000101010101010100010101000101001101010011010101000101010001010101 \
b1010011010101010101010101010110010101100101010101010101010101000101010101010100010101000101001101010011010101000101010001010101 k"
b1010011010101010101010101010110010101100101010101010101010101000101010101010100010101000101001101010011010101000101010001010101 y"
b1010011010101010101010101010110010101100101010101010101010101000101010101010100010101000101001101010011010101000101010001010101 D"
b1010011010101010101010101010110010101100101010101010101010101000101010101010100010101000101001101010011010101000101010001010101 [
b1010011010101010101010101010110010101100101010101010101010101000101010101010100010101000101001101010011010101000101010001010101 j"
b1010011010101010101010101010110010101100101010101010101010101000101010101010100010101000101001101010011010101000101010001010101 x"
b10000000000000000 M#
b10000000000000000 E#
b10000000000000000 <#
1!
1(
0%
03
#32
b1010101010101000101010001010101010100110101001101010001010100100101010001010011010100110101001001010010010100100101000101010001 C#
b1010101010101000101010001010101010100110101001101010001010100100101010001010011010100110101001001010010010100100101000101010001 -
b1010101010101000101010001010101010100110101001101010001010100100101010001010011010100110101001001010010010100100101000101010001 k
b1010101010101000101010001010101010100110101001101010001010100100101010001010011010100110101001001010010010100100101000101010001 ("
#35
0!
0(
#40
b1 .#
1Q"
1d
0S"
0l
b1010101010101000101010001010101010100110101001101010001010100100101010001010011010100110101001001010010010100100101000101010001 E"
b1010101010101000101010001010101010100110101001101010001010100100101010001010011010100110101001001010010010100100101000101010001 \
b1010101010101000101010001010101010100110101001101010001010100100101010001010011010100110101001001010010010100100101000101010001 k"
b1010101010101000101010001010101010100110101001101010001010100100101010001010011010100110101001001010010010100100101000101010001 y"
b1 M"
b10000000000000000 <#
b10000000000000000 E#
b10000000000000000 M#
b10 T"
1!
1(
1#
1.
#45
0!
0(
#50
b10 .#
11#
1t"
0N"
0G
0K"
0=
1P"
1X
0Q"
0d
b1 ,#
b10 M"
b10000000000000000 M#
b10000000000000000 E#
b10000000000000000 <#
1!
1(
#55
0!
0(
#60
b11 .#
01#
0t"
0J"
0r
0}"
b10 ,#
b10000000000000000 <#
b10000000000000000 E#
b10000000000000000 M#
1!
1(
0#
0.
#65
0!
0(
#70
b100 .#
0-#
0W
1/#
1r"
b11 ,#
b10000000000000000 M#
b10000000000000000 E#
b10000000000000000 <#
1!
1(
#75
0!
0(
#80
b101 .#
12#
1u"
0/#
0r"
b100000000000000000000000100000011000000110000000100000010000000000000001100000011000000100000001000000010000000010000000100000011000000010000000100000010000000100000000100000001000000000000000100000000000000000000001100000011000000000000000000000001 %#
b1010100010101000101010001010100010100000101000001010000010100000101010001010000010100000101000001010000010100000101000001010000010100000101010001010100010101000101010001010100010101000101010001010100010101000101010001010000010100000101010001010100010101 '#
b100 ,#
b10000000000000000 <#
b10000000000000000 E#
b10000000000000000 M#
1!
1(
#85
0!
0(
#90
b110 .#
02#
0u"
b10000000000000000000000000000000000000000000000000000000000000000 )#
b101 ,#
b1 $#
b10101 &#
b10101 ^
b10101 -"
b10101 l"
b10000000000000000 M#
b10000000000000000 E#
b10000000000000000 <#
1!
1(
#95
0!
0(
#100
b111 .#
10#
1s"
b10101 @"
b10101 6
b10101 s
b10101 6#
b110 ,#
b10000000000000000 <#
b10000000000000000 E#
b10000000000000000 M#
1!
1(
#105
0!
0(
#110
b1000 .#
13#
1v"
00#
0s"
b111 ,#
b10000000000000000 M#
b10000000000000000 E#
b10000000000000000 <#
1!
1(
#115
0!
0(
#120
b100 .#
14#
1w"
03#
0v"
b1 |"
b10101 *#
b10101 b
b10101 /"
b10101 p"
b10000000000000000000000000000000000000000000000000000000000000000 (#
b10000000000000000000000000000000000000000000000000000000000000000 c
b10000000000000000000000000000000000000000000000000000000000000000 0"
b10000000000000000000000000000000000000000000000000000000000000000 q"
1+#
1]
b1000000000000000000000 ~"
b1000 ,#
b10000000000000000 <#
b10000000000000000 E#
b10000000000000000 M#
1!
1(
#125
0!
0(
#130
b101 .#
12#
1u"
04#
0w"
b100 ,#
b10101000101010001010100010101000101000001010000010100000101000001010100010100000101000001010000010100000101000001010000010100000101000001010100010101000101010001010100010101000101010001010100010101000101010001010100010100000101000001010100010101 '#
b1000000000000000000000001000000110000001100000001000000100000000000000011000000110000001000000010000000100000000100000001000000110000000100000001000000100000001000000001000000010000000000000001000000000000000000000011000000110000000000000000 %#
1?"
14
b10000000000000000000000000000000000000000000000000000000000000000 C"
b10000000000000000000000000000000000000000000000000000000000000000 ;
b10000000000000000000000000000000000000000000000000000000000000000 x
b10000000000000000000000000000000000000000000000000000000000000000 8#
b10101 B"
b10101 :
b10101 w
b10101 7#
b10000000000000000 M#
b10000000000000000 E#
b10000000000000000 <#
1!
1(
#132
b1000000000000000000000 ;#
#135
0!
0(
#140
b1000000000000000000000000000000000000000000000000000000000000000000000000000000000000000000000000 )#
b110 .#
02#
0u"
b0 $#
0+#
0]
b101 ,#
b10000000000000000 <#
b10000000000000000 E#
b10000000000000000 M#
1!
1(
#142
b10000000000000000000000000000000000000000000000000000000000000000 :#
b10000000000000000000000000000000000000000000000000000000000000000 9
b10000000000000000000000000000000000000000000000000000000000000000 v
b10000000000000000000000000000000000000000000000000000000000000000 *"
#145
0!
0(
#150
b111 .#
10#
1s"
b110 ,#
0?"
04
b10000000000000000000000000000000000000000000000000000000000000000 G"
b10000000000000000000000000000000000000000000000000000000000000000 a
b10000000000000000000000000000000000000000000000000000000000000000 o"
b10000000000000000 M#
b10000000000000000 E#
b10000000000000000 <#
1!
1(
#152
b0 ;#
#155
0!
0(
#160
b1000 .#
13#
1v"
00#
0s"
b111 ,#
b10000000000000000 <#
b10000000000000000 E#
b10000000000000000 M#
1!
1(
#165
0!
0(
#170
b100 .#
14#
1w"
03#
0v"
b1000 ,#
b1000000000000000000000000000000000000000000000000000000000000000000000000000000000000000000000000 (#
b1000000000000000000000000000000000000000000000000000000000000000000000000000000000000000000000000 c
b1000000000000000000000000000000000000000000000000000000000000000000000000000000000000000000000000 0"
b1000000000000000000000000000000000000000000000000000000000000000000000000000000000000000000000000 q"
1+#
1]
b10 |"
b10000000000000000 M#
b10000000000000000 E#
b10000000000000000 <#
1!
1(
#175
0!
0(
#180
b101 .#
12#
1u"
04#
0w"
1?"
14
b1000000000000000000000000000000000000000000000000000000000000000000000000000000000000000000000000 C"
b1000000000000000000000000000000000000000000000000000000000000000000000000000000000000000000000000 ;
b1000000000000000000000000000000000000000000000000000000000000000000000000000000000000000000000000 x
b1000000000000000000000000000000000000000000000000000000000000000000000000000000000000000000000000 8#
b10000000000000000000000010000001100000011000000010000001000000000000000110000001100000010000000100000001000000001000000010000001100000001000000010000001000000010000000010000000100000000000000010000000000000000000000110000001100000000 %#
b101010001010100010101000101010001010000010100000101000001010000010101000101000001010000010100000101000001010000010100000101000001010000010101000101010001010100010101000101010001010100010101000101010001010100010101000101000001010000010101 '#
b100 ,#
b10000000000000000 <#
b10000000000000000 E#
b10000000000000000 M#
1!
1(
#182
b1000000000000000000000 ;#
#185
0!
0(
#190
b110 .#
02#
0u"
b101 ,#
0+#
0]
b10000000000000000 M#
b10000000000000000 E#
b10000000000000000 <#
1!
1(
#192
b1000000000000000000000000000000000000000000000000000000000000000000000000000000000000000000000000 :#
b1000000000000000000000000000000000000000000000000000000000000000000000000000000000000000000000000 9
b1000000000000000000000000000000000000000000000000000000000000000000000000000000000000000000000000 v
b1000000000000000000000000000000000000000000000000000000000000000000000000000000000000000000000000 *"
#195
0!
0(
#200
b111 .#
10#
1s"
0?"
04
b1000000000000000000000000000000000000000000000000000000000000000000000000000000000000000000000000 G"
b1000000000000000000000000000000000000000000000000000000000000000000000000000000000000000000000000 a
b1000000000000000000000000000000000000000000000000000000000000000000000000000000000000000000000000 o"
b110 ,#
b10000000000000000 <#
b10000000000000000 E#
b10000000000000000 M#
1!
1(
#202
b0 ;#
#205
0!
0(
#210
b1000 .#
13#
1v"
00#
0s"
b111 ,#
b10000000000000000 M#
b10000000000000000 E#
b10000000000000000 <#
1!
1(
#215
0!
0(
#220
b100 .#
14#
1w"
03#
0v"
b11 |"
1+#
1]
b1000 ,#
b10000000000000000 <#
b10000000000000000 E#
b10000000000000000 M#
1!
1(
#225
0!
0(
#230
b101 .#
12#
1u"
04#
0w"
b100 ,#
b1010100010101000101010001010100010100000101000001010000010100000101010001010000010100000101000001010000010100000101000001010000010100000101010001010100010101000101010001010100010101000101010001010100010101000101010001010000010100 '#
b100000000000000000000000100000011000000110000000100000010000000000000001100000011000000100000001000000010000000010000000100000011000000010000000100000010000000100000000100000001000000000000000100000000000000000000001100000011 %#
1?"
14
b10000000000000000 M#
b10000000000000000 E#
b10000000000000000 <#
1!
1(
#232
b1000000000000000000000 ;#
#235
0!
0(
#240
b1 )#
b110 .#
02#
0u"
b11 $#
b10100 &#
b10100 ^
b10100 -"
b10100 l"
0+#
0]
b101 ,#
b10000000000000000 <#
b10000000000000000 E#
b10000000000000000 M#
1!
1(
#245
0!
0(
#250
b111 .#
10#
1s"
b110 ,#
0?"
04
b10100 @"
b10100 6
b10100 s
b10100 6#
b10000000000000000 M#
b10000000000000000 E#
b10000000000000000 <#
1!
1(
#252
b0 ;#
bx :#
bx 9
bx v
bx *"
#255
0!
0(
#260
b1000 .#
13#
1v"
00#
0s"
bx G"
bx a
bx o"
b111 ,#
b10000000000000000 <#
b10000000000000000 E#
b10000000000000000 M#
1!
1(
#265
0!
0(
#270
b100 .#
14#
1w"
03#
0v"
b1000 ,#
b1100000000000000000000 ~"
b10100 *#
b10100 b
b10100 /"
b10100 p"
b1 (#
b1 c
b1 0"
b1 q"
1+#
1]
b100 |"
b10000000000000000 M#
b10000000000000000 E#
b10000000000000000 <#
1!
1(
#275
0!
0(
#280
b101 .#
12#
1u"
04#
0w"
1?"
14
b1 C"
b1 ;
b1 x
b1 8#
b10100 B"
b10100 :
b10100 w
b10100 7#
b1000000000000000000000001000000110000001100000001000000100000000000000011000000110000001000000010000000100000000100000001000000110000000100000001000000100000001000000001000000010000000000000001000000000000000000000011 %#
b10101000101010001010100010101000101000001010000010100000101000001010100010100000101000001010000010100000101000001010000010100000101000001010100010101000101010001010100010101000101010001010100010101000101010001010100010100 '#
b100 ,#
b10000000000000000 <#
b10000000000000000 E#
b10000000000000000 M#
1!
1(
#282
b100000000000000000000 ;#
#285
0!
0(
#290
b110 .#
02#
0u"
b101 ,#
0+#
0]
b10000000000000000 M#
b10000000000000000 E#
b10000000000000000 <#
1!
1(
#292
b1 :#
b1 9
b1 v
b1 *"
#295
0!
0(
#300
b111 .#
10#
1s"
0?"
04
b1 G"
b1 a
b1 o"
b110 ,#
b10000000000000000 <#
b10000000000000000 E#
b10000000000000000 M#
1!
1(
#302
b0 ;#
#305
0!
0(
#310
b1000 .#
13#
1v"
00#
0s"
b111 ,#
b10000000000000000 M#
b10000000000000000 E#
b10000000000000000 <#
1!
1(
#315
0!
0(
#320
b100 .#
14#
1w"
03#
0v"
b101 |"
1+#
1]
b1000 ,#
b10000000000000000 <#
b10000000000000000 E#
b10000000000000000 M#
1!
1(
#325
0!
0(
